{
  "[a-zA-Z0-9._-]ruktó[a-zA-Z0-9._-]":{
      "name":{
         "hu":"Fruktóz",
         "en":"Fructose"
      }
   },
  "[a-zA-Z0-9._-]aktó[a-zA-Z0-9._-]":{
      "name":{
         "hu":"Laktóz",
         "en":"Lactose"
      }
   },
   "[a-zA-Z0-9._-]annit[a-zA-Z0-9._-]":{
      "name":{
         "hu":"Mannit",
         "en":"Mannitol"
      }
   },
   "[a-zA-Z0-9._-]orbit[a-zA-Z0-9._-]":{
      "name":{
         "hu":"Sorbit",
         "en":"Sorbitol"
      }
   },
   "GOS":{
      "name":{
         "hu":"GOS",
         "en":"GOS"
      }
   },
   "[a-zA-Z0-9._-]ruktá[a-zA-Z0-9._-]":{
      "name":{
         "hu":"Fruktán",
         "en":"Fructan"
      }
   },
   "[a-zA-Z0-9._-]andul[a-zA-Z0-9._-]":{
      "name":{
         "hu":"Mandula",
         "en":"Almond"
      }
   },
   "[a-zA-Z0-9._-]isznóparéj":{
      "name":{
         "hu":"Disznóparéj",
         "en":"Amaranth"
      }
   },
   "[a-zA-Z0-9._-]rpa[a-zA-Z0-9._-]":{
      "name":{
         "hu":"Árpa",
         "en":"Barley"
      }
   },
   "[a-zA-Z0-9._-]orp[a-zA-Z0-9._-]":{
      "name":{
         "hu":"Korpa",
         "en":"Bran"
      }
   },
   "[a-zA-Z0-9._-]rticsók[a-zA-Z0-9._-]":{
      "name":{
         "hu":"Articsóka",
         "en":"Artichoke"
      }
   },
   "[a-zA-Z0-9._-]párg[a-zA-Z0-9._-]":{
      "name":{
         "hu":"Spárga",
         "en":"Asparagus"
      }
   },
   "[a-zA-Z0-9._-]ékl[a-zA-Z0-9._-]":{
      "name":{
         "hu":"Cékla",
         "en":"Beetroot"
      }
   },
   "[a-zA-Z0-9._-]rokkol[a-zA-Z0-9._-]":{
      "name":{
         "hu":"Brokkoli",
         "en":"Broccoli"
      }
   },
   "[a-zA-Z0-9._-]elbimb[a-zA-Z0-9._-]":{
      "name":{
         "hu":"Kelbimbó",
         "en":"Brussels sprouts"
      }
   },
   "[a-zA-Z0-9._-]ütőtö[a-zA-Z0-9._-]":{
      "name":{
         "hu":"Sütőtök",
         "en":"Pumpkin"
      }
   },
   "[a-zA-Z0-9._-]áposzta[a-zA-Z0-9._-]":{
      "name":{
         "hu":"Káposzta",
         "en":"Cabbage"
      }
   },
   "[a-zA-Z0-9._-]öldpaprik[a-zA-Z0-9._-]":{
      "name":{
         "hu":"Zöldpaprika",
         "en":"Capsicum, green"
      }
   },
   "[a-zA-Z0-9._-]arfio[a-zA-Z0-9._-]":{
      "name":{
         "hu":"Karfiol",
         "en":"Cauliflower"
      }
   },
   "[C|c|Z|z]e[l]{1}er[a-zA-Z0-9._-]":{
      "name":{
         "hu":"Zeller",
         "en":"Celery"
      }
   },
   "[a-zA-Z0-9._-]ilipaprik[a-zA-Z0-9._-]":{
      "name":{
         "hu":"Csilipaprika",
         "en":"Chilli"
      }
   },
   "[a-zA-Z0-9._-]ukoric[a-zA-Z0-9._-]":{
      "name":{
         "hu":"Kukorica",
         "en":"Corn"
      }
   },
   "[a-zA-Z0-9._-]ukkin[a-zA-Z0-9._-]":{
      "name":{
         "hu":"Cukkini",
         "en":"Courgette"
      }
   },
   "[a-zA-Z0-9._-]deskömé[a-zA-Z0-9._-]":{
      "name":{
         "hu":"Édeskömény",
         "en":"Fennel"
      }
   },
   "[a-zA-Z0-9._-]okhagym[a-zA-Z0-9._-]":{
      "name":{
         "hu":"Fokhagyma",
         "en":"Garlic"
      }
   },
   "[a-zA-Z0-9._-]óréhagym[a-zA-Z0-9._-]":{
      "name":{
         "hu":"Póréhagyma",
         "en":"Leek"
      }
   },
   "[a-zA-Z0-9._-]orsó":{
      "name":{
         "hu":"Borsó",
         "en":"Peas"
      }
   },
   "[a-zA-Z0-9._-]omba":{
      "name":{
         "hu":"Gomba",
         "en":"Mushroom"
      }
   },
   "[a-zA-Z0-9._-]agym[a-zA-Z0-9._-]":{
      "name":{
         "hu":"Hagyma",
         "en":"Onion"
      }
   },
   "[a-zA-Z0-9._-]lma":{
      "name":{
         "hu":"Alma",
         "en":"Apple"
      }
   },
   "[a-zA-Z0-9._-]arack":{
      "name":{
         "hu":"Barack",
         "en":"Peach"
      }
   },
   "[a-zA-Z0-9._-]vokádó":{
      "name":{
         "hu":"Avokádó",
         "en":"Avocado"
      }
   },
   "[a-zA-Z0-9._-]anán":{
      "name":{
         "hu":"Banán",
         "en":"Banana"
      }
   },
   "[a-zA-Z0-9._-]zeder":{
      "name":{
         "hu":"Szeder",
         "en":"Blackberry"
      }
   },
   "[a-zA-Z0-9._-]őzegáfonya":{
      "name":{
         "hu":"Tözegáfonya",
         "en":"Cranberries"
      }
   },
   "[a-zA-Z0-9._-]árgadinnye":{
      "name":{
         "hu":"Sárgadinnye",
         "en":"Melon"
      }
   },
   "[a-zA-Z0-9._-]seresznye":{
      "name":{
         "hu":"Cseresznye",
         "en":"Cherries"
      }
   },
   "[a-zA-Z0-9._-]ókusz":{
      "name":{
         "hu":"Kókusz",
         "en":"Coconut"
      }
   },
   "[a-zA-Z0-9._-]fonya":{
      "name":{
         "hu":"Áfonya",
         "en":"Blueberry"
      }
   },
   "[a-zA-Z0-9._-]atolya":{
      "name":{
         "hu":"Datolya",
         "en":"Dates"
      }
   },
   "[a-zA-Z0-9._-]üge":{
      "name":{
         "hu":"Füge",
         "en":"Figs"
      }
   },
   "[a-zA-Z0-9._-]réfút":{
      "name":{
         "hu":"Gréfút",
         "en":"Grapefruit"
      }
   },
   "[a-zA-Z0-9._-]angó":{
      "name":{
         "hu":"Mangó",
         "en":"Mango"
      }
   },
   "[a-zA-Z0-9._-]ektarin":{
      "name":{
         "hu":"Nektarin",
         "en":"Nectarine"
      }
   },
   "[a-zA-Z0-9._-]ilva":{
      "name":{
         "hu":"Szilva",
         "en":"Plum"
      }
   },
   "[a-zA-Z0-9._-]ránátalma":{
      "name":{
         "hu":"Gránátalma",
         "en":"Pomegranate"
      }
   },
   "[a-zA-Z0-9._-]álna":{
      "name":{
         "hu":"Málna",
         "en":"Rasberry"
      }
   },
   "[Í|í]ró":{
      "name":{
         "hu":"Író",
         "en":"Buttermilk"
      }
   },
   "[S|s]odó":{
      "name":{
         "hu":"Sodó",
         "en":"Custard"
      }
   },
   "[T|t]ej":{
      "name":{
         "hu":"Tej",
         "en":"Milk"
      }
   },
   "[B|b]ab":{
      "name":{
         "hu":"Bab",
         "en":"Beans"
      }
   },
   "[K|k]esu":{
      "name":{
         "hu":"Kesudió",
         "en":"Cashews"
      }
   },
   "[C|c]seri":{
      "name":{
         "hu":"Csicseriborsó",
         "en":"Chickpea"
      }
   },
   "[L|l]encse":{
      "name":{
         "hu":"Lencse",
         "en":"Lentil"
      }
   },
   "[P|p]isztá[a-zA-Z0-9._-]":{
      "name":{
         "hu":"Pisztárcia",
         "en":"Pitachio"
      }
   },
   "[S|s]zója":{
      "name":{
         "hu":"Szója",
         "en":"Soya"
      }
   },
   "[T|t]ofu":{
      "name":{
         "hu":"Tofu",
         "en":"Tofu"
      }
   },
   "[K|k]amilla":{
      "name":{
         "hu":"Kamilla",
         "en":"Chamomile"
      }
   },
   "[M|m]éz":{
      "name":{
         "hu":"Méz",
         "en":"Honey"
      }
   },
   "[K|k]etchup":{
      "name":{
         "hu":"Ketchup",
         "en":"Ketchup"
      }
   },
   "[T|t]zatziki":{
      "name":{
         "hu":"Tzatziki",
         "en":"Tzatziki"
      }
   }
}